…
```r
# 1. In order to answer this question we must first sum the total number of steps taken per day. 
steps_per_day <- group_by(activity_data,date) %>% 
                 summarise(steps_per_day = sum(steps)) 
       

print(steps_per_day)
```

```
## # A tibble: 61 x 2
##          date steps_per_day
##        <date>         <int>
##  1 2012-10-01            NA
##  2 2012-10-02           126
##  3 2012-10-03         11352
##  4 2012-10-04         12116
##  5 2012-10-05         13294
##  6 2012-10-06         15420
##  7 2012-10-07         11015
##  8 2012-10-08            NA
##  9 2012-10-09         12811
## 10 2012-10-10          9900
## # ... with 51 more rows
```
…
###What is the average daily activity pattern?

```r
# 1. Make a time series plot of the 5-minute interval (x-axis) and the average 
# number of steps taken, averaged across all days (y-axis)

# Aggregate the activity data by each 5 minute interval and take the average
interval_average_steps <- group_by(activity_data,interval) %>% 
                          summarize(mean = mean(steps,na.rm = TRUE))

print(interval_average_steps)
```

```
## # A tibble: 288 x 2
##    interval      mean
##       <int>     <dbl>
##  1        0 1.7169811
##  2        5 0.3396226
##  3       10 0.1320755
##  4       15 0.1509434
##  5       20 0.0754717
##  6       25 2.0943396
##  7       30 0.5283019
##  8       35 0.8679245
##  9       40 0.0000000
## 10       45 1.4716981
## # ... with 278 more rows
```
…
